Birthrate by Country
…
The first step in the data science pipeline is data curation. This means acquiring all the data that we need to perform our analyses, and we cant perform analysis without it. For this example, we are looking at the relationship between a countrys birthrate and factors such as GDP, income, and life expectancy for those countries. To do this, we need to pull Gapminder data from four sources:

A CSV file containing birthrate per country by year that can be downloaded from this link under the indicator Babies per woman: https://www.gapminder.org/data/

A CSV file containing data on income per person that can be downloaded from this link under the indicator Income per person: https://www.gapminder.org/data/

A CSV file containing data on child mortality per 1000 people that can be downloaded from this link under the indicator Child mortality: https://www.gapminder.org/data/

and a dataframe containing life expectancy per country by year from the gapminder library.

children_per_woman_total_fertility <- read_csv("children_per_woman_total_fertility.csv")
children_per_woman_total_fertility

## # A tibble: 184 x 220
##    country `1800` `1801` `1802` `1803` `1804` `1805` `1806` `1807` `1808`
##    <chr>    <dbl>  <dbl>  <dbl>  <dbl>  <dbl>  <dbl>  <dbl>  <dbl>  <dbl>
##  1 Afghan~   7      7      7      7      7      7      7      7      7   
##  2 Albania   4.6    4.6    4.6    4.6    4.6    4.6    4.6    4.6    4.6 
##  3 Algeria   6.99   6.99   6.99   6.99   6.99   6.99   6.99   6.99   6.99
##  4 Angola    6.93   6.93   6.93   6.93   6.93   6.93   6.93   6.94   6.94
##  5 Antigu~   5      5      4.99   4.99   4.99   4.98   4.98   4.97   4.97
##  6 Argent~   6.8    6.8    6.8    6.8    6.8    6.8    6.8    6.8    6.8 
##  7 Armenia   7.8    7.8    7.81   7.81   7.81   7.82   7.82   7.82   7.83
##  8 Austra~   6.5    6.48   6.46   6.44   6.42   6.4    6.38   6.36   6.34
##  9 Austria   5.1    5.1    5.1    5.1    5.1    5.1    5.1    5.1    5.1 
## 10 Azerba~   8.1    8.1    8.1    8.1    8.1    8.1    8.1    8.1    8.1 
## # ... with 174 more rows, and 210 more variables: `1809` <dbl>,
## #   `1810` <dbl>, `1811` <dbl>, `1812` <dbl>, `1813` <dbl>, `1814` <dbl>,
## #   `1815` <dbl>, `1816` <dbl>, `1817` <dbl>, `1818` <dbl>, `1819` <dbl>,
## #   `1820` <dbl>, `1821` <dbl>, `1822` <dbl>, `1823` <dbl>, `1824` <dbl>,
## #   `1825` <dbl>, `1826` <dbl>, `1827` <dbl>, `1828` <dbl>, `1829` <dbl>,
## #   `1830` <dbl>, `1831` <dbl>, `1832` <dbl>, `1833` <dbl>, `1834` <dbl>,
## #   `1835` <dbl>, `1836` <dbl>, `1837` <dbl>, `1838` <dbl>, `1839` <dbl>,
## #   `1840` <dbl>, `1841` <dbl>, `1842` <dbl>, `1843` <dbl>, `1844` <dbl>,
## #   `1845` <dbl>, `1846` <dbl>, `1847` <dbl>, `1848` <dbl>, `1849` <dbl>,
…
income_per_person_gdppercapita_ppp_inflation_adjusted <- read_csv("income_per_person_gdppercapita_ppp_inflation_adjusted.csv")
income_per_person_gdppercapita_ppp_inflation_adjusted

## # A tibble: 193 x 242
##    country `1800` `1801` `1802` `1803` `1804` `1805` `1806` `1807` `1808`
##    <chr>    <dbl>  <dbl>  <dbl>  <dbl>  <dbl>  <dbl>  <dbl>  <dbl>  <dbl>
##  1 Afghan~    603    603    603    603    603    603    603    603    603
##  2 Albania    667    667    667    667    667    668    668    668    668
##  3 Algeria    715    716    717    718    719    720    721    722    723
##  4 Andorra   1200   1200   1200   1200   1210   1210   1210   1210   1220
##  5 Angola     618    620    623    626    628    631    634    637    640
##  6 Antigu~    757    757    757    757    757    757    757    758    758
##  7 Argent~   1510   1510   1510   1510   1510   1510   1510   1510   1510
##  8 Armenia    514    514    514    514    514    514    514    514    514
##  9 Austra~    814    816    818    820    822    824    825    827    829
## 10 Austria   1850   1850   1860   1870   1880   1880   1890   1900   1910
## # ... with 183 more rows, and 232 more variables: `1809` <dbl>,
## #   `1810` <dbl>, `1811` <dbl>, `1812` <dbl>, `1813` <dbl>, `1814` <dbl>,
## #   `1815` <dbl>, `1816` <dbl>, `1817` <dbl>, `1818` <dbl>, `1819` <dbl>,
## #   `1820` <dbl>, `1821` <dbl>, `1822` <dbl>, `1823` <dbl>, `1824` <dbl>,
## #   `1825` <dbl>, `1826` <dbl>, `1827` <dbl>, `1828` <dbl>, `1829` <dbl>,
## #   `1830` <dbl>, `1831` <dbl>, `1832` <dbl>, `1833` <dbl>, `1834` <dbl>,
## #   `1835` <dbl>, `1836` <dbl>, `1837` <dbl>, `1838` <dbl>, `1839` <dbl>,
## #   `1840` <dbl>, `1841` <dbl>, `1842` <dbl>, `1843` <dbl>, `1844` <dbl>,
## #   `1845` <dbl>, `1846` <dbl>, `1847` <dbl>, `1848` <dbl>, `1849` <dbl>,
…
